<?xml version="1.0" encoding="UTF-8"?>
<svg xmlns="http://www.w3.org/2000/svg" xmlns:xlink="http://www.w3.org/1999/xlink" viewBox="0 0 64 64" width="64px" height="64px">
<g id="surface12770873">
<path style=" stroke:none;fill-rule:nonzero;fill:rgb(20.392157%,59.607846%,85.882354%);fill-opacity:1;" d="M 50.351562 38.148438 C 45.296875 38.148438 41.199219 42.246094 41.199219 47.300781 C 41.199219 52.351562 45.296875 56.449219 50.351562 56.449219 C 55.402344 56.449219 59.5 52.351562 59.5 47.300781 C 59.5 42.246094 55.402344 38.148438 50.351562 38.148438 Z M 50.351562 38.148438 "/>
<path style=" stroke:none;fill-rule:nonzero;fill:rgb(79.215688%,90.980393%,100%);fill-opacity:1;" d="M 13.648438 38.148438 C 8.597656 38.148438 4.5 42.246094 4.5 47.300781 C 4.5 52.351562 8.597656 56.449219 13.648438 56.449219 C 18.703125 56.449219 22.800781 52.351562 22.800781 47.300781 C 22.800781 42.246094 18.703125 38.148438 13.648438 38.148438 Z M 13.648438 38.148438 "/>
<path style=" stroke:none;fill-rule:nonzero;fill:rgb(92.54902%,94.117647%,94.509804%);fill-opacity:1;" d="M 32 7.550781 C 26.945312 7.550781 22.851562 11.648438 22.851562 16.699219 C 22.851562 21.753906 26.945312 25.851562 32 25.851562 C 37.054688 25.851562 41.148438 21.753906 41.148438 16.699219 C 41.148438 11.648438 37.054688 7.550781 32 7.550781 Z M 32 7.550781 "/>
<path style=" stroke:none;fill-rule:nonzero;fill:rgb(27.450982%,29.803923%,33.333334%);fill-opacity:1;" d="M 13.648438 57.949219 C 7.800781 57.949219 3 53.148438 3 47.300781 C 3 41.449219 7.800781 36.648438 13.648438 36.648438 C 19.5 36.648438 24.300781 41.449219 24.300781 47.300781 C 24.300781 53.148438 19.550781 57.949219 13.648438 57.949219 Z M 13.648438 39.601562 C 9.398438 39.601562 6 43.050781 6 47.25 C 6 51.5 9.449219 54.898438 13.648438 54.898438 C 17.898438 54.898438 21.300781 51.449219 21.300781 47.25 C 21.351562 43.050781 17.898438 39.601562 13.648438 39.601562 Z M 50.351562 57.949219 C 44.449219 57.949219 39.699219 53.148438 39.699219 47.300781 C 39.699219 41.449219 44.5 36.648438 50.351562 36.648438 C 56.199219 36.648438 61 41.398438 61 47.300781 C 61 53.199219 56.199219 57.949219 50.351562 57.949219 Z M 50.351562 39.601562 C 46.101562 39.601562 42.699219 43.050781 42.699219 47.25 C 42.699219 51.5 46.148438 54.898438 50.351562 54.898438 C 54.601562 54.898438 58 51.449219 58 47.25 C 58 43.050781 54.550781 39.601562 50.351562 39.601562 Z M 32 27.398438 C 26.101562 27.398438 21.351562 22.601562 21.351562 16.75 C 21.351562 10.898438 26.101562 6.050781 32 6.050781 C 37.898438 6.050781 42.648438 10.851562 42.648438 16.699219 C 42.648438 22.550781 37.898438 27.398438 32 27.398438 Z M 32 9.050781 C 27.75 9.050781 24.351562 12.5 24.351562 16.699219 C 24.351562 20.949219 27.800781 24.351562 32 24.351562 C 36.199219 24.351562 39.648438 20.898438 39.648438 16.699219 C 39.648438 12.5 36.25 9.050781 32 9.050781 Z M 32 9.050781 "/>
<path style=" stroke:none;fill-rule:nonzero;fill:rgb(27.450982%,29.803923%,33.333334%);fill-opacity:1;" d="M 45.601562 40.898438 C 45.101562 40.898438 44.601562 40.648438 44.300781 40.148438 L 38.550781 30.601562 C 38.101562 29.898438 38.351562 28.949219 39.050781 28.550781 C 39.75 28.101562 40.699219 28.351562 41.101562 29.050781 L 46.851562 38.648438 C 47.300781 39.351562 47.050781 40.300781 46.351562 40.699219 C 46.148438 40.851562 45.898438 40.898438 45.601562 40.898438 Z M 45.601562 40.898438 "/>
<path style=" stroke:none;fill-rule:nonzero;fill:rgb(27.450982%,29.803923%,33.333334%);fill-opacity:1;" d="M 21.699219 35.800781 C 21.449219 35.800781 21.148438 35.75 20.898438 35.601562 C 20.199219 35.148438 20 34.25 20.398438 33.550781 L 26.300781 24 C 26.75 23.300781 27.648438 23.050781 28.351562 23.5 C 29.050781 23.949219 29.25 24.851562 28.851562 25.550781 L 22.949219 35.050781 C 22.648438 35.5 22.199219 35.800781 21.699219 35.800781 Z M 21.699219 35.800781 "/>
</g>
</svg>
